{
  "AuthorizationUrl": "https://github.com/login/oauth/authorize?",
  "client_id": "427b8aa144a566f83ca7",
  "client_secret": "9ab7f10bce7e3914414439adf0c86180c97fc169",
  "scope": "gist",
  "access_token_key": "access_token",
  "access_user_key": "user"
}
